%YAML 1.1
%TAG !u! tag:unity3d.com,2011:
--- !u!1 &3138623745753692368
GameObject:
  m_ObjectHideFlags: 0
  m_CorrespondingSourceObject: {fileID: 0}
  m_PrefabInstance: {fileID: 0}
  m_PrefabAsset: {fileID: 0}
  serializedVersion: 6
  m_Component:
  - component: {fileID: 3119614686603027205}
  - component: {fileID: 5270851267708239505}
  - component: {fileID: 1233572502449052219}
  - component: {fileID: 591626011708115921}
  m_Layer: 0
  m_Name: LevelManager
  m_TagString: Untagged
  m_Icon: {fileID: 419385456094870383, guid: 0000000000000000d000000000000000, type: 0}
  m_NavMeshLayer: 0
  m_StaticEditorFlags: 0
  m_IsActive: 1
--- !u!4 &3119614686603027205
Transform:
  m_ObjectHideFlags: 0
  m_CorrespondingSourceObject: {fileID: 0}
  m_PrefabInstance: {fileID: 0}
  m_PrefabAsset: {fileID: 0}
  m_GameObject: {fileID: 3138623745753692368}
  m_LocalRotation: {x: 0, y: 0, z: 0, w: 1}
  m_LocalPosition: {x: 10, y: 0, z: 0}
  m_LocalScale: {x: 1, y: 1, z: 1}
  m_ConstrainProportionsScale: 0
  m_Children: []
  m_Father: {fileID: 0}
  m_RootOrder: 3
  m_LocalEulerAnglesHint: {x: 0, y: 0, z: 0}
--- !u!114 &5270851267708239505
MonoBehaviour:
  m_ObjectHideFlags: 0
  m_CorrespondingSourceObject: {fileID: 0}
  m_PrefabInstance: {fileID: 0}
  m_PrefabAsset: {fileID: 0}
  m_GameObject: {fileID: 3138623745753692368}
  m_Enabled: 1
  m_EditorHideFlags: 0
  m_Script: {fileID: 11500000, guid: e55a4f399de48794fa29aac2931265df, type: 3}
  m_Name: 
  m_EditorClassIdentifier: 
  blockObstacleSpawn: 1
  blockEnemySpawn: 1
  obstacle: {fileID: 3373867479289236146, guid: b0db377402ede844eb0458bb49bffa08, type: 3}
  spawnObstacleRate: 2
  highPoint: 2.5
  lowPoint: -1.5
  enemy: {fileID: 2913004145072904975, guid: 23ccc091af614554f86f7c20f7721d9c, type: 3}
  scoreEnemyThreshold: 2
  spawnEnemyRate: 5
  highEnemyPoint: 2.5
  lowEnemyPoint: -1.5
  score: 0
  highScore: 0
  scoreText: {fileID: 0}
  deathScoreText: {fileID: 0}
  highScoreText: {fileID: 0}
--- !u!95 &1233572502449052219
Animator:
  serializedVersion: 5
  m_ObjectHideFlags: 0
  m_CorrespondingSourceObject: {fileID: 0}
  m_PrefabInstance: {fileID: 0}
  m_PrefabAsset: {fileID: 0}
  m_GameObject: {fileID: 3138623745753692368}
  m_Enabled: 1
  m_Avatar: {fileID: 0}
  m_Controller: {fileID: 0}
  m_CullingMode: 0
  m_UpdateMode: 0
  m_ApplyRootMotion: 0
  m_LinearVelocityBlending: 0
  m_StabilizeFeet: 0
  m_WarningMessage: 
  m_HasTransformHierarchy: 1
  m_AllowConstantClipSamplingOptimization: 1
  m_KeepAnimatorStateOnDisable: 0
  m_WriteDefaultValuesOnDisable: 0
--- !u!114 &591626011708115921
MonoBehaviour:
  m_ObjectHideFlags: 0
  m_CorrespondingSourceObject: {fileID: 0}
  m_PrefabInstance: {fileID: 0}
  m_PrefabAsset: {fileID: 0}
  m_GameObject: {fileID: 3138623745753692368}
  m_Enabled: 1
  m_EditorHideFlags: 0
  m_Script: {fileID: 11500000, guid: 8e7844b3d23a77246859ac0c9feed2d0, type: 3}
  m_Name: 
  m_EditorClassIdentifier: 
